<svg xmlns="http://www.w3.org/2000/svg" width="60" height="60" viewBox="0 0 60 60">
    <g fill="#00AFF0" fill-rule="evenodd">
        <path d="M29.679 5.196c-13.716 0-24.874 11.16-24.874 24.875s11.158 24.874 24.874 24.874c13.715 0 24.873-11.159 24.873-24.874 0-13.715-11.158-24.875-24.873-24.875zm0 54.433C13.38 59.63.12 46.37.12 30.071.12 13.772 13.38.512 29.679.512c16.298 0 29.558 13.26 29.558 29.559 0 16.298-13.26 29.558-29.558 29.558z"/>
        <path d="M12.785 31.772l9.353 11.024 24.047-19.295-3.553-4.427-19.739 15.84-5.78-6.814-4.328 3.672"/>
    </g>
</svg>
