<svg xmlns="http://www.w3.org/2000/svg" width="60" height="60" viewBox="0 0 60 60">
    <g fill="#00AFF0" fill-rule="evenodd">
        <path d="M29.678 5.196c-13.715 0-24.873 11.16-24.873 24.875s11.158 24.874 24.873 24.874c13.716 0 24.874-11.159 24.874-24.874 0-13.715-11.158-24.875-24.874-24.875zm0 54.433C13.38 59.63.12 46.37.12 30.071.12 13.772 13.38.512 29.678.512c16.299 0 29.559 13.26 29.559 29.559 0 16.298-13.26 29.558-29.559 29.558z"/>
        <path d="M22.28 43.235h14.79V30.109c0-4.077-3.32-7.396-7.395-7.396-4.08 0-7.396 3.319-7.396 7.396v13.126zm-1.17-13.126v10.18h-5.562v-9.18a5.104 5.104 0 0 1 5.1-5.099c.501 0 .976.096 1.43.231-.598 1.168-.968 2.469-.968 3.868zm22.697 10.18h-5.57v-10.18c0-1.399-.366-2.7-.966-3.868a5.036 5.036 0 0 1 1.436-.231c2.81 0 5.1 2.284 5.1 5.098v9.18zM29.675 12.022a4.725 4.725 0 0 0-4.717 4.718c0 2.6 2.116 4.72 4.717 4.72a4.726 4.726 0 0 0 4.718-4.72 4.723 4.723 0 0 0-4.718-4.718zM14.27 27.803c.347 0 .67.065.99.16-.548.93-.881 1.996-.881 3.145V37.8h-3.634v-6.474a3.529 3.529 0 0 1 3.525-3.523zm6.375-9.403a3.194 3.194 0 0 0-3.192 3.19 3.192 3.192 0 0 0 3.192 3.187 3.192 3.192 0 0 0 3.189-3.187c0-1.76-1.433-3.19-3.19-3.19zM48.61 37.8h-3.635v-6.692c0-1.15-.34-2.215-.88-3.145.319-.095.645-.16.995-.16a3.53 3.53 0 0 1 3.52 3.523V37.8zm-9.899-19.4a3.189 3.189 0 0 0 0 6.377 3.193 3.193 0 0 0 3.193-3.187c0-1.76-1.436-3.19-3.193-3.19zm-24.44 3.899a2.147 2.147 0 0 0-2.15 2.142 2.148 2.148 0 0 0 4.294 0c0-1.18-.964-2.142-2.145-2.142zm30.819 0c-1.188 0-2.15.962-2.15 2.142a2.146 2.146 0 1 0 4.292 0c0-1.18-.962-2.142-2.142-2.142z"/>
    </g>
</svg>
